<?xml version="1.0" encoding="UTF-8"?>
<svg width="7px" height="13px" viewBox="0 0 7 13" version="1.1" xmlns="http://www.w3.org/2000/svg" xmlns:xlink="http://www.w3.org/1999/xlink">
    <!-- Generator: Sketch 61 (89581) - https://sketch.com -->
    <title>Group</title>
    <desc>Created with Sketch.</desc>
    <g id="🎨-Symbols" stroke="none" stroke-width="1" fill="none" fill-rule="evenodd">
        <g id="Form-Field/Select-Minimal" transform="translate(-190.000000, -30.000000)" fill="#03D8E0">
            <g id="Group" transform="translate(190.000000, 30.000000)">
                <path d="M4.81070938,1.12264248 L6.85507787,3.9536137 C7.17841232,4.40135612 7.07755973,5.02643743 6.6298173,5.34977188 C6.45941139,5.47282946 6.25456207,5.5390625 6.04436849,5.5390625 L1.95563151,5.5390625 C1.40334676,5.5390625 0.955631506,5.09134725 0.955631506,4.5390625 C0.955631506,4.32886892 1.02186455,4.1240196 1.14492213,3.9536137 L3.18929062,1.12264248 C3.51262507,0.674900054 4.13770638,0.574047459 4.5854488,0.897381905 C4.67209018,0.959949445 4.74814184,1.0360011 4.81070938,1.12264248 Z" id="Rectangle"></path>
                <path d="M4.81070938,9.12264248 L6.85507787,11.9536137 C7.17841232,12.4013561 7.07755973,13.0264374 6.6298173,13.3497719 C6.45941139,13.4728295 6.25456207,13.5390625 6.04436849,13.5390625 L1.95563151,13.5390625 C1.40334676,13.5390625 0.955631506,13.0913472 0.955631506,12.5390625 C0.955631506,12.3288689 1.02186455,12.1240196 1.14492213,11.9536137 L3.18929062,9.12264248 C3.51262507,8.67490005 4.13770638,8.57404746 4.5854488,8.89738191 C4.67209018,8.95994944 4.74814184,9.0360011 4.81070938,9.12264248 Z" id="Rectangle-Copy" transform="translate(4.000000, 10.769531) rotate(-180.000000) translate(-4.000000, -10.769531) "></path>
            </g>
        </g>
    </g>
</svg>