<?xml version="1.0" encoding="UTF-8"?>
<svg width="16px" height="16px" viewBox="0 0 16 16" version="1.1" xmlns="http://www.w3.org/2000/svg" xmlns:xlink="http://www.w3.org/1999/xlink">
    <!-- Generator: Sketch 61 (89581) - https://sketch.com -->
    <title>edit</title>
    <desc>Created with Sketch.</desc>
    <g id="🕸️-Application" stroke="none" stroke-width="1" fill="none" fill-rule="evenodd" stroke-linecap="round" stroke-linejoin="round">
        <g id="contentWeb_9-2" transform="translate(-1316.000000, -297.000000)" stroke="#FFFFFF" stroke-width="2">
            <g id="Script" transform="translate(76.000000, 260.000000)">
                <g id="Rename" transform="translate(1152.000000, 29.000000)">
                    <g id="Icon/Edit/White" transform="translate(88.000000, 8.000000)">
                        <polygon id="Rectangle" transform="translate(7.250000, 8.750000) rotate(-315.000000) translate(-7.250000, -8.750000) " points="5.12867966 -0.0888347648 9.37132034 -0.0888347648 9.37132034 15.4675144 7.25 17.5888348 5.12867966 15.4675144"></polygon>
                        <line x1="9" y1="4" x2="12" y2="7" id="Line"></line>
                    </g>
                </g>
            </g>
        </g>
    </g>
</svg>