<svg xmlns="http://www.w3.org/2000/svg" xmlns:xlink="http://www.w3.org/1999/xlink" width="14" height="14" viewBox="0 0 14 14">
  <defs>
    <style>
      .cls-1, .cls-3 {
        fill: none;
      }

      .cls-2 {
        clip-path: url(#clip-path);
      }

      .cls-3 {
        stroke: #282b4c;
        stroke-linecap: round;
        stroke-linejoin: round;
        stroke-miterlimit: 10;
        stroke-width: 2px;
      }
    </style>
    <clipPath id="clip-path">
      <rect class="cls-1" width="14" height="14"/>
    </clipPath>
  </defs>
  <g id="fullscreen" class="cls-2">
    <path id="Line_2" data-name="Line 2" class="cls-3" d="M0,14,14,0"/>
    <path id="Line_2-2" data-name="Line 2" class="cls-3" d="M0,0,14,14"/>
    <path id="Path_2" data-name="Path 2" class="cls-3" d="M0,4V0H4"/>
    <path id="Path_2-2" data-name="Path 2" class="cls-3" d="M0,4V0H4" transform="translate(14) rotate(90)"/>
    <path id="Path_2-3" data-name="Path 2" class="cls-3" d="M0,4V0H4" transform="translate(14 14) rotate(180)"/>
    <path id="Path_2-4" data-name="Path 2" class="cls-3" d="M0,4V0H4" transform="translate(0 14) rotate(-90)"/>
  </g>
</svg>
