<?xml version="1.0" encoding="UTF-8"?>
<svg width="27px" height="20px" viewBox="0 0 27 20" version="1.1" xmlns="http://www.w3.org/2000/svg" xmlns:xlink="http://www.w3.org/1999/xlink">
    <!-- Generator: Sketch 61 (89581) - https://sketch.com -->
    <title>image-icon</title>
    <desc>Created with Sketch.</desc>
    <g id="🕸️-Application" stroke="none" stroke-width="1" fill="none" fill-rule="evenodd">
        <g id="contentWeb_5.2" transform="translate(-1022.000000, -360.000000)">
            <g id="Modal" transform="translate(273.000000, 57.000000)">
                <g id="Format" transform="translate(32.000000, 244.000000)">
                    <g id="image-icon" transform="translate(718.000000, 60.000000)">
                        <rect id="Rectangle" stroke="#FFFFFF" stroke-width="2" stroke-linecap="round" stroke-linejoin="round" x="0" y="0" width="25" height="18"></rect>
                        <polyline id="Path-3" stroke="#FFFFFF" stroke-width="2" stroke-linecap="round" stroke-linejoin="round" points="25 18 18 7 11 18"></polyline>
                        <circle id="Oval" fill="#FFFFFF" cx="7" cy="5" r="2"></circle>
                    </g>
                </g>
            </g>
        </g>
    </g>
</svg>