<?xml version="1.0" encoding="UTF-8"?>
<svg width="16px" height="20px" viewBox="0 0 16 20" version="1.1" xmlns="http://www.w3.org/2000/svg" xmlns:xlink="http://www.w3.org/1999/xlink">
    <!-- Generator: Sketch 61 (89581) - https://sketch.com -->
    <title>video-icon</title>
    <desc>Created with Sketch.</desc>
    <g id="🕸️-Application" stroke="none" stroke-width="1" fill="none" fill-rule="evenodd" stroke-linecap="round" stroke-linejoin="round">
        <g id="contentWeb_5.2" transform="translate(-397.000000, -359.000000)" stroke="#FFFFFF" stroke-width="2">
            <g id="Modal" transform="translate(273.000000, 57.000000)">
                <g id="Format" transform="translate(32.000000, 244.000000)">
                    <polygon id="video-icon" transform="translate(100.000000, 68.000000) rotate(-270.000000) translate(-100.000000, -68.000000) " points="100 61 109 75 91 75"></polygon>
                </g>
            </g>
        </g>
    </g>
</svg>